{
  "kind": "collectionType",
  "collectionName": "guardias",
  "info": {
    "name": "Guardia"
  },
  "options": {
    "increments": true,
    "timestamps": true,
    "draftAndPublish": true
  },
  "attributes": {
    "cedula": {
      "type": "text",
      "required": true,
      "unique": true
    },
    "nombre": {
      "type": "text",
      "required": true
    },
    "direccion": {
      "type": "text",
      "required": true
    },
    "telefono": {
      "type": "text",
      "unique": false,
      "required": true
    },
    "asignados": {
      "via": "guardia",
      "collection": "asignado"
    },
    "turnos": {
      "via": "guardia",
      "collection": "turno"
    }
  }
}
